<?xml version="1.0" encoding="UTF-8"?>
<gpx version="1.1" creator="GPSBabel - https://www.gpsbabel.org" xmlns="http://www.topografix.com/GPX/1/1" xmlns:xsi="http://www.w3.org/2001/XMLSchema-instance" xmlns:ogr="http://osgeo.org/gdal">
  <metadata>
    <time>2020-10-30T13:08:34.098Z</time>
    <bounds minlat="12.154080283" minlon="79.894190474" maxlat="12.161806958" maxlon="79.898611106"/>
  </metadata>
  <rte>
    <rtept lat="12.154080283" lon="79.896271439">
      <name>WPT001</name>
      <cmt>WPT001</cmt>
      <desc>WPT001</desc>
      <ogr:fid>1.0</ogr:fid>
      <ogr:distance>0.0</ogr:distance>
      <ogr:angle>296.862395394250257</ogr:angle>
    </rtept>
    <rtept lat="12.155024709" lon="79.894190474">
      <name>WPT002</name>
      <cmt>WPT002</cmt>
      <desc>WPT002</desc>
      <ogr:fid>1.0</ogr:fid>
      <ogr:distance>250.0</ogr:distance>
      <ogr:angle>282.158393746240733</ogr:angle>
    </rtept>
    <rtept lat="12.156399902" lon="79.894532498">
      <name>WPT003</name>
      <cmt>WPT003</cmt>
      <desc>WPT003</desc>
      <ogr:fid>1.0</ogr:fid>
      <ogr:distance>500.0</ogr:distance>
      <ogr:angle>39.741058798164858</ogr:angle>
    </rtept>
    <rtept lat="12.158086414" lon="79.896060796">
      <name>WPT004</name>
      <cmt>WPT004</cmt>
      <desc>WPT004</desc>
      <ogr:fid>1.0</ogr:fid>
      <ogr:distance>750.0</ogr:distance>
      <ogr:angle>43.911696769807939</ogr:angle>
    </rtept>
    <rtept lat="12.159814556" lon="79.897533770">
      <name>WPT005</name>
      <cmt>WPT005</cmt>
      <desc>WPT005</desc>
      <ogr:fid>1.0</ogr:fid>
      <ogr:distance>1000.0</ogr:distance>
      <ogr:angle>36.242569726141284</ogr:angle>
    </rtept>
    <rtept lat="12.161806958" lon="79.898611106">
      <name>WPT006</name>
      <cmt>WPT006</cmt>
      <desc>WPT006</desc>
      <ogr:fid>1.0</ogr:fid>
      <ogr:distance>1250.0</ogr:distance>
      <ogr:angle>28.042142002225429</ogr:angle>
    </rtept>
  </rte>
</gpx>
