"phy_code","phcode2","physio"
3.1,1,"Dense to moderately disturbed wet evergreen forests"
3.11,11,"Highly disturbed dryevergreen semi evergreen forest"
3.12,12,"Mosaics of savanna, disturbed forest, thickets, plantation and orchards"
3.2,2,"Disturbed to highly disturbed wet evergreen forests"
3.3,3,"Dense to moderately disturbed dry evergreen forests"
3.4,4,"Dense deciduous forests"
3.5,5,"Woodland to savanna woodland"
3.6,6,"Tree savanna to grass savanna"
3.7,7,"Scrub woodland to thicket"
3.8,8,"Discontinuous thicket to low scattered shrubs"
3.9,9,"Ochlandra reeds"
3.1,10,"Swamp"
