ft_code,forest,floristic
2.1.a,"Low elevation wet evergreen types","Dipterocarpus indicus - Kingiodendron pinnatum - Strombosia ceylanica type"
2.1.b,"Low elevation wet evergreen types","Hopea rachophloea - Humboldtia decurrens facies of Dipterocarpus indicus -Kingiodendron pinnatum - Strombosia ceylanica type"
2.1.c,"Low elevation wet evergreen types","Myristica swamp facies of Dipterocarpus indicus -Kingiodendron pinnatum - Strombosia ceylanica type"
2.1.d,"Low elevation wet evergreen types","Dipterocarpus indicus - Dipterocarpus bourdilloni - Strombosia ceylanica type"
2.1.e,"Low elevation wet evergreen types","Dipterocarpus indicus - Kingiodendron pinnatum - Humboldtia brunonis type"
2.1.f,"Low elevation wet evergreen types","Poeciloneuron indicum facies of Dipterocarpus indicus - Kingiodendron pinnatum - Humboldtia brunonis type"
2.1.g,"Low elevation wet evergreen types","Dipterocarpus indicus - Humboldtia brunonis - Poeciloneuron indicum type"
2.1.h,"Low elevation wet evergreen types","Dipterocarpus indicus - Diospyros candolleana - Diospyros oocarpa type"
2.1.i,"Low elevation wet evergreen types","Poeciloneuron indicum facies of Dipterocarpus indicus - Diospyros candolleana - Diospyros oocarpa type"
2.1.j,"Low elevation wet evergreen types","Dipterocarpus indicus - persea macrantha type"
2.1.k,"Low elevation wet evergreen types","Poeciloneuron indicum facies of Dipterocarpus indicus - Persea macrantha type"
2.1.l,"Low elevation wet evergreen types","Persea macrantha - Diospyros spp. - Holigarna spp. type"
2.1.m,"Low elevation wet evergreen types","Diospyros spp. - Dysoxylum malabaricum - Persea macrantha ""kan"" forest type"
2.2.a,"Medium elevation wet evergreen types","Cullenia exarillata - Mesua ferrea - Palaquium ellipticum - Gluta travancorica type"
2.2.b,"Medium elevation wet evergreen types","Nageia wallichiana facies of Cullenia exarillata - Mesua ferrea - Palaquium ellipticum - Gluta travancorica type"
2.2.c,"Medium elevation wet evergreen types","Cullenia exarillata - Mesua ferrea - palaquium ellipticum"
2.2.d,"Medium elevation wet evergreen types","Transitional type of dry fringes"
2.2.e,"Medium  elevation wet evergreen types","Mesua ferrea - Palaquium ellipticum type"
2.2.f,"Medium  elevation wet evergreen types","Palaquium ellipticum - poeciloneuron indicum - Hopea ponga type"
2.2.g,"Medium elevation wet evergreen types","“Transition type”"
2.2.h,"Medium elevation wet evergreen types","“Memecylon umbellatum – Syzgium cumini – Actinodaphne anguistifolia type”"
2.3.a,"High elevation wet evergreen types","Bhesa indica - Gomphandra coriacea - Litsea spp. type"
2.3.b,"High elevation wet evergreen types","Schefflera spp. - Gordonia obtusa - Meliosma arnottiana type"
2.4.a,"Dry evergreen types","Diospyros foliolosa - Mitreophora heyneana - Miliusa spp. type"
2.4.b,"Dry evergreen types","Drypetes porteri facies of Diospyros foliolosa - Mitreophora heyneana - Miliusa spp. type"
2.4.c,"Dry evergreen types","Diospyros foliolosa - Mitreophora heyneana - Miliusa spp. - Kingiodendron pinatum type"
2.4.d,"Dry evergreen types","Hopea utilis facies of Diospyros foliolosa - Mitreophora heyneana - Miliusa spp. - Kingiodendron pinnatum type"
2.5.a,"Moist deciduous types","Lagestroemia microcarpa - Tectona grandis - Dillenia pentagyna type"
2.5.a,"Moist deciduous types","Lagestroemia microcarpa - Tectona grandis - Dillenia pentagyna type"
2.6.a,"Dry deciduous types","Albizia amara - Acacia spp. type and Gyrocarpus jacquini on slopes"
2.6.b,"Dry deciduous types","Anogeissus latifolia - Pterocarpus marsupium - Terminalia spp. type"
2.6.c,"Dry deciduous types","“Anogeissus latifolia – Tectona grandis – Terminalia tomentosa type”"
2.6.d,"Dry deciduous types","“Anogeissus latifolia – Chloroxylon swietenia – Albizia amara type”"
