mft_code,m_forest,s_forest
1.1,"Moist and dry deciduous climax forests and degraded stages","Dry deciduous climax forests and potentially related formations"
1.10,"Wet evergreen and semi - evergreen climax forests and secondary or degradation stages","Low elevation wet evergreen and semi-evergreen climax and potentially related forests"
1.11,Plantations,Coffe
1.12,Plantations,Tea
1.13,Plantations,Miscellaneos
1.14,"Wet evergreen and semi - evergreen climax forests and secondary or degradation stages","Secondary or disturbed high elevation wet evergreen forests"
1.15,"Montane formations","Montane forest"
1.16,"Montane formations","Montane grassland"
1.17,"Montane formations","Montane mosaics of savanna, thickets, plantation and orchards"
1.18,Plantations,Teak
1.19,Plantations,Eucalyptus
1.2,"Wet evergreen and semi - evergreen climax forests and secondary or degradation stages","Medium elevation wet evergreen climax and potentially related forests"
1.3,"Wet evergreen and semi - evergreen climax forests and secondary or degradation stages","High elevation wet evergreen climax and potentially related forests"
1.4,"Wet evergreen and semi - evergreen climax forests and secondary or degradation stages","Secondary or disturbed low elevation wet evergreen forests"
1.5,"Wet evergreen and semi - evergreen climax forests and secondary or degradation stages","Secondary or disturbed medium elevation wet evergreen forests"
1.6,"Wet evergreen and semi - evergreen climax forests and secondary or degradation stages","Secondary moist deciduous forests"
1.7,"Wet evergreen and semi - evergreen climax forests and secondary or degradation stages","Degraded or natural Savanna formations in potential area or wet evergreen forests"
1.8,"Dry evergreen or semi-evergreen climax forests and degraded formations","Dry evergreen or semi- evergreen climax forests and potentially related formations"
1.9,"Moist and dry deciduous climax forests and degraded stages","Moist deciduous climax forests and potentially related formations"
